<?xml version="1.0" encoding="utf-8"?>
<!-- Generator: Adobe Illustrator 20.0.0, SVG Export Plug-In . SVG Version: 6.00 Build 0)  -->
<svg version="1.1" id="katman_1" xmlns="http://www.w3.org/2000/svg" xmlns:xlink="http://www.w3.org/1999/xlink" x="0px" y="0px"
	 viewBox="0 0 167.3 26.1" style="enable-background:new 0 0 167.3 26.1;" xml:space="preserve">
<style type="text/css">
	.st0{fill:#222222;}
	.st1{fill:#FF4F00;}
</style>
<g>
	<path class="st0" d="M96,2.4c0-0.7-0.2-1.2-0.7-1.7c-0.5-0.5-1-0.7-1.6-0.7h-2.6v22.5c0,2.2,0.9,3.3,2.7,3.5
		c1.8,0.1,3.5,0.2,5.1,0.1v-3.7h-1.5c-0.9,0-1.4-0.4-1.4-1.2V10h0.5c0.7,0,1.2-0.2,1.7-0.7c0.5-0.4,0.7-1,0.7-1.7v-1H96V2.4z"/>
	<path class="st0" d="M84.2,7.3c-1.6-0.6-3.3-0.7-5.2-0.5c-1.9,0.3-3.5,1.1-4.7,2.5c-0.8,0.8-1.3,1.9-1.7,3.2
		C72.2,13.8,72,15,72,16.3c0,1.5,0.2,3,0.6,4.5c0.4,1.4,1.1,2.6,2.1,3.4c0.9,0.8,2.2,1.4,3.8,1.8c1.6,0.4,3.2,0.3,4.7-0.1
		c1.7-0.4,3.2-1.3,4.3-2.9c0.5-0.8,0.9-1.7,1.3-2.7c0.3-1.1,0.5-2.4,0.5-3.9c0-2.1-0.4-3.9-1.2-5.4C87.3,9.2,86,8,84.2,7.3z
		 M83.6,20.5c-0.6,0.8-1.2,1.4-1.9,1.6c-0.7,0.2-1.5,0.2-2.2-0.1c-0.7-0.3-1.2-0.6-1.5-1c-0.7-0.8-1.1-2.3-1.2-4.5
		c-0.1-2.1,0.4-3.7,1.3-4.8c0.3-0.3,0.9-0.6,1.6-0.8c0.7-0.2,1.4-0.2,2.1,0c0.7,0.2,1.3,0.8,1.9,1.6c0.5,0.8,0.8,2.1,0.8,3.8
		C84.5,18.3,84.2,19.7,83.6,20.5z"/>
	<path class="st0" d="M166.6,0.7c-0.5-0.5-1-0.7-1.6-0.7h-2.6v7.4c-0.1-0.1-0.2-0.1-0.4-0.1c-1.6-0.6-3.3-0.7-5.2-0.5
		c-1.9,0.3-3.5,1.1-4.7,2.5c-0.8,0.8-1.3,1.9-1.7,3.2c-0.4,1.3-0.5,2.5-0.5,3.8c0,1.5,0.2,3,0.6,4.5c0.4,1.4,1.1,2.6,2.1,3.4
		c0.9,0.8,2.2,1.4,3.8,1.8c1.6,0.4,3.2,0.3,4.7-0.1c0.7-0.2,1.4-0.4,2-0.7c0.9-0.5,1.7-1.2,2.4-2.1c0.5-0.8,0.9-1.7,1.3-2.7
		c0.3-1.1,0.6-2.4,0.6-3.9V2.4C167.3,1.7,167.1,1.2,166.6,0.7z M159.5,22c-0.7,0.2-1.5,0.2-2.2-0.1c-0.7-0.3-1.2-0.6-1.5-1
		c-0.7-0.8-1.1-2.3-1.2-4.5c-0.1-2.1,0.4-3.7,1.3-4.8c0.3-0.3,0.9-0.6,1.6-0.8c0.7-0.2,1.4-0.2,2.1,0c0.7,0.2,1.3,0.8,1.9,1.6
		c0.5,0.8,0.8,2.1,0.8,3.8c0,1.9-0.4,3.2-0.9,4.1C160.9,21.3,160.3,21.8,159.5,22z"/>
	<path class="st0" d="M121,6.6c-2.7,0-4.8,0.9-6.3,2.6c-1.5,1.7-2.2,4-2.2,7c0,3.1,0.8,5.6,2.3,7.3c1.5,1.7,3.6,2.6,6.3,2.6
		c2.2,0,4.1-0.5,5.5-1.6c1.5-1,2.5-2.5,3-4.5H126c-0.6,0-1,0.1-1.3,0.4c-0.3,0.2-0.5,0.4-0.5,0.6c-0.1,0.1-0.3,0.3-0.4,0.4
		c-0.1,0.1-0.2,0.2-0.4,0.2c-0.6,0.3-1.3,0.5-2.1,0.5c-1.2,0-2.2-0.4-2.8-1.1c-0.7-0.7-1-1.8-1.1-3.2h12.3c0-0.1,0.1-0.3,0.1-0.5
		v-0.3v-0.5c0-3.1-0.8-5.5-2.3-7.3C126,7.5,123.8,6.6,121,6.6z M117.5,14.5c0-1.2,0.4-2.2,1.1-2.8c0.7-0.7,1.5-1,2.6-1
		c1.1,0,2,0.3,2.6,1c0.6,0.6,0.9,1.5,1,2.8H117.5z"/>
	<path class="st0" d="M145.4,8.3c-1.7-1.1-3.7-1.7-5.7-1.7c-2,0.1-3.9,0.7-5.6,1.8c-1.7,1.1-2.5,3.3-2.5,6.5v11.2h5V13.9
		c0-1.1,0.3-2,1-2.5c0.7-0.5,1.4-0.8,2.3-0.8c0.9,0,1.6,0.3,2.3,0.8c0.7,0.5,1,1.4,1,2.5v9.8c0,0.7,0.2,1.3,0.7,1.8
		c0.4,0.5,1,0.7,1.7,0.7h2.5V14.9C148.1,11.6,147.2,9.4,145.4,8.3z"/>
	<path class="st0" d="M110.7,7.3c-1.3,0-2.5,0.2-3.7,0.5c-1.2,0.3-2.3,0.9-3.2,1.6c-0.9,0.8-1.7,1.8-2.2,3c-0.5,1.3-0.8,2.8-0.8,4.6
		v9.1h5v-9.7c0-1.4,0.3-2.5,1-3.1c0.7-0.7,1.7-1,3-1h1.6v-5H111H110.7z"/>
	<g>
		<path class="st0" d="M48.1,8.9C48.1,8.9,48.1,8.9,48.1,8.9c0.5-2.1,1.3-3.9,2.6-5.4C52.8,1.2,55.6,0,59.1,0c3,0,5.5,0.7,7.5,2.2
			c0.5,0.4,1,0.9,1.4,1.4c0,0,0,0.1,0.1,0.1c0.1,0.1,0.2,0.3,0.3,0.4c0.1,0.1,0.1,0.1,0.2,0.2c0.1,0.1,0.1,0.2,0.2,0.3
			C68.9,4.8,69,4.9,69,5c0,0.1,0.1,0.1,0.1,0.2c0.1,0.2,0.2,0.4,0.3,0.6c0,0,0,0,0,0c0.3,0.8,0.6,1.6,0.7,2.5h-3.4
			c-0.5,0-1-0.1-1.4-0.4c0,0,0,0,0,0c-0.1,0-0.1-0.1-0.2-0.2c-0.1,0-0.1-0.1-0.1-0.1c0,0,0,0-0.1-0.1c-0.2-0.2-0.3-0.4-0.4-0.6
			c0-0.1-0.1-0.1-0.1-0.2c-0.1-0.1-0.1-0.2-0.2-0.3c-0.3-0.4-0.6-0.7-1.1-1.1c-0.9-0.7-2.2-1-3.8-1c-2,0-3.6,0.7-4.8,2.2
			C54,7.2,53.7,8,53.4,8.8c0,0,0,0,0-0.1c-0.2,0.7-0.2,1.3-0.2,1.3c-0.2,1.2-0.4,4-0.2,5.3c0.2,1.7,0.8,3.1,1.7,4.2
			c1.2,1.5,2.9,2.2,5,2.2c1.6,0,2.9-0.4,4-1.3c1-0.9,1.7-2.2,2-3.9h-3c-0.7,0-1.3-0.2-1.8-0.7s-0.7-1.1-0.7-1.8v-1.6h10.1v13.8h-1.3
			c-1.3,0-2.2-0.7-2.5-2l-0.2-1.5c-0.9,1.2-1.9,2.1-3,2.7c-1.2,0.5-2.6,0.8-4,0.8c-3.5,0-6.3-1.2-8.3-3.5c-2-2.3-2.9-5.2-3.1-8.2
			C47.7,14.5,47.3,11.4,48.1,8.9z"/>
	</g>
	<path class="st1" d="M23.6,0v3.1c0,1.3,0.5,2.5,1.4,3.4c0.9,0.9,2.1,1.4,3.4,1.4h5.6c-0.5,3.1-1.8,5.6-3.8,7.4
		c-2,1.7-4.5,2.5-7.5,2.5c-4.1,0-7.3-1.4-9.5-4.2c-1.7-2.1-2.8-4.8-3.2-8C9.9,4.8,9.9,1.3,10,0H0c0,0,0.2,4.7,0.3,5.1
		C0.8,11.2,2.4,15.5,6,19.6c3.8,4.4,9.1,6.6,15.7,6.6c2.8,0,5.3-0.5,7.6-1.5c2.2-1.1,4.2-2.8,5.8-5.1l0.4,2.8
		c0.6,2.5,2.2,3.8,4.7,3.8h2.5V0H23.6z"/>
</g>
</svg>
